%YAML 1.1
%TAG !u! tag:unity3d.com,2011:
--- !u!1001 &100100000
Prefab:
  m_ObjectHideFlags: 1
  serializedVersion: 2
  m_Modification:
    m_TransformParent: {fileID: 0}
    m_Modifications: []
    m_RemovedComponents: []
  m_ParentPrefab: {fileID: 0}
  m_RootGameObject: {fileID: 1796067429054418}
  m_IsPrefabParent: 1
--- !u!1 &1665968948499610
GameObject:
  m_ObjectHideFlags: 0
  m_PrefabParentObject: {fileID: 0}
  m_PrefabInternal: {fileID: 100100000}
  serializedVersion: 5
  m_Component:
  - component: {fileID: 4936117143836072}
  - component: {fileID: 20289772613001152}
  - component: {fileID: 124148860657623362}
  - component: {fileID: 81017567173888632}
  m_Layer: 0
  m_Name: Main Camera
  m_TagString: MainCamera
  m_Icon: {fileID: 0}
  m_NavMeshLayer: 0
  m_StaticEditorFlags: 0
  m_IsActive: 1
--- !u!1 &1796067429054418
GameObject:
  m_ObjectHideFlags: 0
  m_PrefabParentObject: {fileID: 0}
  m_PrefabInternal: {fileID: 100100000}
  serializedVersion: 5
  m_Component:
  - component: {fileID: 4338895710168924}
  - component: {fileID: 212016826731675232}
  - component: {fileID: 60056009844564634}
  - component: {fileID: 114951460767950516}
  - component: {fileID: 114501367943576680}
  - component: {fileID: 114476589476627590}
  - component: {fileID: 50724566392451158}
  m_Layer: 0
  m_Name: PlayerShip
  m_TagString: Untagged
  m_Icon: {fileID: 0}
  m_NavMeshLayer: 0
  m_StaticEditorFlags: 0
  m_IsActive: 1
--- !u!4 &4338895710168924
Transform:
  m_ObjectHideFlags: 1
  m_PrefabParentObject: {fileID: 0}
  m_PrefabInternal: {fileID: 100100000}
  m_GameObject: {fileID: 1796067429054418}
  m_LocalRotation: {x: 0, y: 0, z: 0, w: 1}
  m_LocalPosition: {x: 0, y: 0, z: 0}
  m_LocalScale: {x: 2, y: 2, z: 2}
  m_Children:
  - {fileID: 4936117143836072}
  m_Father: {fileID: 0}
  m_RootOrder: 0
  m_LocalEulerAnglesHint: {x: 0, y: 0, z: 0}
--- !u!4 &4936117143836072
Transform:
  m_ObjectHideFlags: 1
  m_PrefabParentObject: {fileID: 0}
  m_PrefabInternal: {fileID: 100100000}
  m_GameObject: {fileID: 1665968948499610}
  m_LocalRotation: {x: -0, y: -0, z: -0, w: 1}
  m_LocalPosition: {x: 0, y: 0, z: -10}
  m_LocalScale: {x: 1, y: 1, z: 1}
  m_Children: []
  m_Father: {fileID: 4338895710168924}
  m_RootOrder: 0
  m_LocalEulerAnglesHint: {x: 0, y: 0, z: 0}
--- !u!20 &20289772613001152
Camera:
  m_ObjectHideFlags: 1
  m_PrefabParentObject: {fileID: 0}
  m_PrefabInternal: {fileID: 100100000}
  m_GameObject: {fileID: 1665968948499610}
  m_Enabled: 1
  serializedVersion: 2
  m_ClearFlags: 1
  m_BackGroundColor: {r: 0.19215687, g: 0.3019608, b: 0.4745098, a: 0}
  m_NormalizedViewPortRect:
    serializedVersion: 2
    x: 0
    y: 0
    width: 1
    height: 1
  near clip plane: 0.3
  far clip plane: 1000
  field of view: 60
  orthographic: 1
  orthographic size: 24.241186
  m_Depth: -1
  m_CullingMask:
    serializedVersion: 2
    m_Bits: 4294967295
  m_RenderingPath: -1
  m_TargetTexture: {fileID: 0}
  m_TargetDisplay: 0
  m_TargetEye: 3
  m_HDR: 1
  m_AllowMSAA: 1
  m_AllowDynamicResolution: 0
  m_ForceIntoRT: 0
  m_OcclusionCulling: 1
  m_StereoConvergence: 10
  m_StereoSeparation: 0.022
--- !u!50 &50724566392451158
Rigidbody2D:
  serializedVersion: 4
  m_ObjectHideFlags: 1
  m_PrefabParentObject: {fileID: 0}
  m_PrefabInternal: {fileID: 100100000}
  m_GameObject: {fileID: 1796067429054418}
  m_BodyType: 0
  m_Simulated: 1
  m_UseFullKinematicContacts: 0
  m_UseAutoMass: 0
  m_Mass: 1
  m_LinearDrag: 0
  m_AngularDrag: 0
  m_GravityScale: 0
  m_Material: {fileID: 0}
  m_Interpolate: 0
  m_SleepingMode: 1
  m_CollisionDetection: 0
  m_Constraints: 0
--- !u!60 &60056009844564634
PolygonCollider2D:
  m_ObjectHideFlags: 1
  m_PrefabParentObject: {fileID: 0}
  m_PrefabInternal: {fileID: 100100000}
  m_GameObject: {fileID: 1796067429054418}
  m_Enabled: 1
  m_Density: 1
  m_Material: {fileID: 0}
  m_IsTrigger: 0
  m_UsedByEffector: 0
  m_UsedByComposite: 0
  m_Offset: {x: 0, y: 0}
  m_SpriteTilingProperty:
    border: {x: 0, y: 0, z: 0, w: 0}
    pivot: {x: 0.5, y: 0.5}
    oldSize: {x: 1.2, y: 1.5}
    newSize: {x: 1.2, y: 1.5}
    adaptiveTilingThreshold: 0.5
    drawMode: 0
    adaptiveTiling: 0
  m_AutoTiling: 0
  m_Points:
    m_Paths:
    - - {x: 0.59999996, y: -0.37}
      - {x: 0.19, y: -0.41}
      - {x: 0.12, y: -0.37}
      - {x: -0.06, y: -0.35}
      - {x: -0.03, y: -0.25}
      - {x: 0.099999994, y: -0.22999999}
      - {x: 0.24, y: -0.19}
      - {x: 0.26, y: -0.17}
      - {x: 0.26, y: -0.16}
      - {x: 0.22999999, y: -0.13}
      - {x: 0.29, y: -0.11}
      - {x: 0.39, y: -0.02}
      - {x: 0.39, y: 0.02}
      - {x: 0.26, y: 0.19999999}
      - {x: -0.03, y: 0.24}
      - {x: -0.049999997, y: 0.28}
      - {x: -0.07, y: 0.29999998}
      - {x: 0.02, y: 0.39}
      - {x: 0.13, y: 0.37}
      - {x: 0.19, y: 0.41}
      - {x: 0.59999996, y: 0.37}
      - {x: 0.59999996, y: 0.42999998}
      - {x: 0.45, y: 0.53999996}
      - {x: 0.03, y: 0.66999996}
      - {x: -0.089999996, y: 0.75}
      - {x: -0.19999999, y: 0.75}
      - {x: -0.21, y: 0.68}
      - {x: -0.29999998, y: 0.69}
      - {x: -0.35, y: 0.69}
      - {x: -0.35999998, y: 0.65999997}
      - {x: -0.32, y: 0.62}
      - {x: -0.29999998, y: 0.51}
      - {x: -0.44, y: 0.5}
      - {x: -0.45, y: 0.47}
      - {x: -0.45999998, y: 0.32}
      - {x: -0.45999998, y: 0.28}
      - {x: -0.59999996, y: 0.26}
      - {x: -0.59999996, y: 0.049999997}
      - {x: -0.45, y: 0.02}
      - {x: -0.59999996, y: -0.06}
      - {x: -0.59999996, y: -0.26}
      - {x: -0.44, y: -0.29}
      - {x: -0.47, y: -0.48}
      - {x: -0.29999998, y: -0.53}
      - {x: -0.35999998, y: -0.65999997}
      - {x: -0.35, y: -0.7}
      - {x: -0.22, y: -0.68}
      - {x: -0.19999999, y: -0.75}
      - {x: -0.089999996, y: -0.75}
      - {x: 0.089999996, y: -0.65}
      - {x: 0.32, y: -0.57}
      - {x: 0.48999998, y: -0.51}
      - {x: 0.59999996, y: -0.42999998}
--- !u!81 &81017567173888632
AudioListener:
  m_ObjectHideFlags: 1
  m_PrefabParentObject: {fileID: 0}
  m_PrefabInternal: {fileID: 100100000}
  m_GameObject: {fileID: 1665968948499610}
  m_Enabled: 1
--- !u!114 &114476589476627590
MonoBehaviour:
  m_ObjectHideFlags: 1
  m_PrefabParentObject: {fileID: 0}
  m_PrefabInternal: {fileID: 100100000}
  m_GameObject: {fileID: 1796067429054418}
  m_Enabled: 1
  m_EditorHideFlags: 0
  m_Script: {fileID: 11500000, guid: 3ade71acbaf0c8244a31ef43bd97c2ad, type: 3}
  m_Name: 
  m_EditorClassIdentifier: 
  tf: {fileID: 4338895710168924}
--- !u!114 &114501367943576680
MonoBehaviour:
  m_ObjectHideFlags: 1
  m_PrefabParentObject: {fileID: 0}
  m_PrefabInternal: {fileID: 100100000}
  m_GameObject: {fileID: 1796067429054418}
  m_Enabled: 1
  m_EditorHideFlags: 0
  m_Script: {fileID: 11500000, guid: 2f28851126d5fce4796dc5bc5bdd7e8d, type: 3}
  m_Name: 
  m_EditorClassIdentifier: 
  pawn: {fileID: 0}
  tf: {fileID: 4338895710168924}
  speed: 1
  turnspeed: 1
--- !u!114 &114951460767950516
MonoBehaviour:
  m_ObjectHideFlags: 1
  m_PrefabParentObject: {fileID: 0}
  m_PrefabInternal: {fileID: 100100000}
  m_GameObject: {fileID: 1796067429054418}
  m_Enabled: 1
  m_EditorHideFlags: 0
  m_Script: {fileID: 11500000, guid: fbdfd1fa0fbbd9f42b7f292b9393bed3, type: 3}
  m_Name: 
  m_EditorClassIdentifier: 
  volume: 1
--- !u!124 &124148860657623362
Behaviour:
  m_ObjectHideFlags: 1
  m_PrefabParentObject: {fileID: 0}
  m_PrefabInternal: {fileID: 100100000}
  m_GameObject: {fileID: 1665968948499610}
  m_Enabled: 1
--- !u!212 &212016826731675232
SpriteRenderer:
  m_ObjectHideFlags: 1
  m_PrefabParentObject: {fileID: 0}
  m_PrefabInternal: {fileID: 100100000}
  m_GameObject: {fileID: 1796067429054418}
  m_Enabled: 1
  m_CastShadows: 0
  m_ReceiveShadows: 0
  m_DynamicOccludee: 1
  m_MotionVectors: 1
  m_LightProbeUsage: 1
  m_ReflectionProbeUsage: 1
  m_Materials:
  - {fileID: 10754, guid: 0000000000000000f000000000000000, type: 0}
  m_StaticBatchInfo:
    firstSubMesh: 0
    subMeshCount: 0
  m_StaticBatchRoot: {fileID: 0}
  m_ProbeAnchor: {fileID: 0}
  m_LightProbeVolumeOverride: {fileID: 0}
  m_ScaleInLightmap: 1
  m_PreserveUVs: 0
  m_IgnoreNormalsForChartDetection: 0
  m_ImportantGI: 0
  m_StitchLightmapSeams: 0
  m_SelectedEditorRenderState: 0
  m_MinimumChartSize: 4
  m_AutoUVMaxDistance: 0.5
  m_AutoUVMaxAngle: 89
  m_LightmapParameters: {fileID: 0}
  m_SortingLayerID: 0
  m_SortingLayer: 0
  m_SortingOrder: 0
  m_Sprite: {fileID: 21300000, guid: 3ecf0cbb08dad824495a2a395e92ac00, type: 3}
  m_Color: {r: 1, g: 1, b: 1, a: 1}
  m_FlipX: 0
  m_FlipY: 0
  m_DrawMode: 0
  m_Size: {x: 1.2, y: 1.5}
  m_AdaptiveModeThreshold: 0.5
  m_SpriteTileMode: 0
  m_WasSpriteAssigned: 1
  m_MaskInteraction: 0
